,2.8,2.0,1.8,1.4
0,1.815927012271088,3.3547002600811373,2.147775330194024,0.060372152816179296
1,0.1328709613700394,0.12474758070698408,0.8271215900744137,0.0
2,1.0414602303601046,2.67802880069515,0.740257388976747,0.10392209171338171
3,1.3475979110583423,1.815927012271088,1.815927012271088,0.1328709613700394
4,0.08086913898377761,0.1328709613700394,0.03657299050402296,0.4347642363034348
5,0.09621542271726363,2.147775330194024,0.1328709613700394,2.115507802275862
6,2.67802880069515,0.04578553866714516,2.67802880069515,0.0
7,2.15338418975796,0.11134356620178354,0.4661749039364845,0.7349042851145253
8,0.10390954254625152,1.0736799811327398,0.10392209171338171,0.06670784687256855
