{
    "series": [
        2.8,
        2.8,
        2.8,
        2.8,
        2.8,
        2.8,
        2.8,
        1.4,
        1.4,
        1.4,
        1.4,
        1.4,
        1.4,
        1.4,
        1.4,
        1.4,
        1.4,
        1.4,
        1.4,
        2.8,
        2.8,
        2.8,
        2.8,
        2.8,
        2.8,
        2.8,
        2.8,
        1.4,
        1.4,
        1.4,
        1.4,
        1.4,
        1.4,
        1.4,
        1.4,
        1.4,
        1.4,
        1.4,
        1.4,
        2.8,
        2.8,
        2.8,
        2.8,
        2.8,
        2.8,
        2.8,
        2.8,
        1.4,
        1.4,
        1.4,
        1.4,
        1.4,
        1.4,
        1.4,
        1.4,
        1.4,
        1.4,
        1.4,
        1.4,
        2.8,
        2.8,
        2.8,
        2.8,
        2.8,
        2.8,
        2.8,
        2.8,
        1.4,
        1.4,
        1.4,
        1.4,
        1.4,
        1.4,
        1.4,
        1.4,
        1.4,
        1.4,
        1.4,
        1.4,
        2.8,
        2.8,
        2.8,
        2.8,
        2.8,
        2.8,
        2.8,
        2.8,
        1.4,
        1.4,
        1.4,
        1.4,
        1.4,
        1.4,
        1.4,
        1.4,
        1.4,
        1.4,
        1.4,
        1.4,
        2.8,
        2.8,
        2.8,
        2.8,
        2.8,
        2.8,
        2.8,
        2.8,
        1.4,
        1.4,
        1.4,
        1.4,
        1.4,
        1.4,
        1.4,
        1.4,
        1.4,
        1.4,
        1.4,
        1.4,
        2.8,
        2.8,
        2.8,
        2.8,
        2.8,
        2.8,
        2.8,
        2.8,
        1.4,
        1.4,
        1.4,
        1.4,
        1.4,
        1.4,
        1.4,
        1.4,
        1.4,
        1.4,
        1.4,
        1.4,
        2.8,
        2.8,
        2.8,
        2.8,
        2.8,
        2.8,
        2.8,
        2.8,
        1.4,
        1.4,
        1.4,
        1.4,
        1.4,
        1.4,
        1.4,
        1.4,
        1.4,
        1.4,
        1.4,
        1.4,
        2.8,
        2.8,
        2.8,
        2.8,
        2.8,
        2.8,
        2.8,
        2.8,
        1.4,
        1.4,
        1.4,
        1.4,
        1.4,
        1.4,
        1.4,
        1.4,
        1.4,
        1.4,
        1.4,
        1.4,
        2.8,
        2.8,
        2.8,
        2.8,
        2.8,
        2.8,
        2.8,
        2.8,
        1.4,
        1.4,
        1.4,
        1.4,
        1.4,
        1.4,
        1.4,
        1.4,
        1.4,
        1.4,
        1.4,
        1.4,
        2.8,
        2.8,
        2.8,
        2.8,
        2.8,
        2.8,
        2.8,
        2.8,
        1.4,
        1.4,
        1.4,
        1.4,
        1.4,
        1.4,
        1.4,
        1.4,
        1.4,
        1.4,
        1.4,
        1.4,
        2.8,
        2.8,
        2.8,
        2.8,
        2.8,
        2.8,
        2.8,
        2.8,
        1.4,
        1.4,
        1.4,
        1.4,
        1.4,
        1.4,
        1.4,
        1.4,
        1.4,
        1.4,
        1.4,
        1.4,
        2.8,
        2.8,
        2.8,
        2.8,
        2.8,
        2.8,
        2.8,
        2.8,
        1.4,
        1.4,
        1.4,
        1.4,
        1.4,
        1.4,
        1.4,
        1.4,
        1.4,
        1.4,
        1.4,
        1.4,
        2.8,
        2.8,
        2.8,
        2.8,
        2.8,
        2.8,
        2.8,
        2.8,
        1.4,
        1.4,
        1.4,
        1.4,
        1.4,
        1.4,
        1.4,
        1.4,
        1.4,
        1.4,
        1.4,
        1.4,
        1.4,
        2.8,
        2.8,
        2.8,
        2.8,
        2.8,
        2.8,
        2.8,
        1.4,
        1.4,
        1.4,
        1.4,
        1.4,
        1.4,
        1.4,
        1.4,
        1.4,
        1.4,
        1.4,
        1.4,
        2.8,
        2.8,
        2.8,
        2.8,
        2.8,
        2.8,
        2.8,
        2.8,
        1.4,
        1.4,
        1.4,
        1.4,
        1.4,
        1.4,
        1.4,
        1.4,
        1.4,
        1.4,
        1.4,
        1.4,
        2.8,
        2.8,
        2.8,
        2.8,
        2.8,
        2.8,
        2.8,
        2.8,
        1.4,
        1.4,
        1.4,
        1.4,
        1.4,
        1.4,
        1.4,
        1.4,
        1.4,
        1.4,
        1.4,
        1.4,
        2.8,
        2.8,
        2.8,
        2.8,
        2.8,
        2.8,
        2.8,
        2.8,
        1.4,
        1.4,
        1.4,
        1.4,
        1.4,
        1.4,
        1.4,
        1.4,
        1.4,
        1.4,
        1.4,
        1.4,
        2.8,
        2.8,
        2.8,
        2.8,
        2.8,
        2.8,
        2.8,
        2.8,
        1.4,
        1.4,
        1.4,
        1.4,
        1.4,
        1.4,
        1.4,
        1.4,
        1.4,
        1.4,
        1.4,
        1.4,
        2.8,
        2.8,
        2.8,
        2.8,
        2.8,
        2.8,
        2.8,
        2.8,
        1.4,
        1.4,
        1.4,
        1.4,
        1.4,
        1.4,
        1.4,
        1.4,
        1.4,
        1.4,
        1.4,
        1.4,
        2.8,
        2.8,
        2.8,
        2.8,
        2.8,
        2.8,
        2.8,
        2.8,
        1.4,
        1.4,
        1.4,
        1.4,
        1.4,
        1.4,
        1.4,
        1.4,
        1.4,
        1.4,
        1.4,
        1.4,
        2.8,
        2.8,
        2.8,
        2.8,
        2.8,
        2.8,
        2.8,
        2.8,
        1.4,
        1.4,
        1.4,
        1.4,
        1.4,
        1.4,
        1.4,
        1.4,
        1.4,
        1.4,
        1.4,
        1.4,
        2.8,
        2.8,
        2.8,
        2.8,
        2.8,
        2.8,
        2.8,
        2.8,
        1.4,
        1.4,
        1.4,
        1.4,
        1.4,
        1.4,
        1.4,
        1.4,
        1.4,
        1.4,
        1.4,
        1.4,
        2.8,
        2.8,
        2.8,
        2.8,
        2.8,
        2.8,
        2.8,
        2.8,
        1.4,
        1.4,
        1.4,
        1.4,
        1.4,
        1.4,
        1.4,
        1.4,
        1.4,
        1.4,
        1.4,
        1.4,
        2.8,
        1.4,
        1.4,
        1.4,
        1.4,
        1.4,
        1.4,
        1.4,
        1.4,
        1.4,
        1.4,
        1.4,
        1.4,
        1.4,
        1.4,
        1.4,
        1.4,
        1.4,
        1.4,
        1.4,
        2.8,
        2.8,
        2.8,
        2.8,
        2.8,
        2.8,
        2.8,
        2.8,
        1.4,
        1.4,
        1.4,
        1.4,
        1.4,
        1.4,
        1.4,
        1.4,
        1.4,
        1.4,
        1.4,
        1.4,
        2.8,
        2.8,
        2.8,
        2.8,
        2.8,
        2.8,
        2.8,
        2.8,
        1.4,
        1.4,
        1.4,
        1.4,
        1.4,
        1.4,
        1.4,
        1.4,
        1.4,
        1.4,
        1.4,
        1.4,
        2.8,
        2.8,
        2.8,
        2.8,
        2.8,
        2.8,
        2.8,
        2.8,
        1.4,
        1.4,
        1.4,
        1.4,
        1.4,
        1.4,
        1.4,
        1.4,
        1.4,
        1.4,
        1.4,
        1.4,
        2.8,
        2.8,
        2.8,
        2.8,
        2.8,
        2.8,
        2.8,
        2.8,
        1.4,
        1.4,
        1.4,
        1.4,
        1.4,
        1.4,
        1.4,
        1.4,
        1.4,
        1.4,
        1.4,
        1.4,
        2.8,
        2.8,
        2.8,
        2.8,
        2.8,
        2.8,
        2.8,
        2.8,
        1.4,
        1.4,
        1.4,
        1.4,
        1.4,
        1.4,
        1.4,
        1.4,
        1.4,
        1.4,
        1.4,
        1.4,
        2.8,
        2.8,
        2.8,
        2.8,
        2.8,
        2.8,
        2.8,
        2.8,
        1.4,
        1.4,
        1.4,
        1.4,
        1.4,
        1.4,
        1.4,
        1.4,
        1.4,
        1.4,
        1.4,
        1.4,
        2.8,
        2.8,
        2.8,
        2.8,
        2.8,
        2.8,
        2.8,
        2.8,
        1.4,
        1.4,
        1.4,
        1.4,
        1.4,
        1.4,
        1.4,
        1.4,
        1.4,
        1.4,
        1.4,
        1.4,
        2.8,
        2.8,
        2.8,
        2.8,
        2.8,
        2.8,
        2.8,
        2.8,
        1.4,
        1.4,
        1.4,
        1.4,
        1.4,
        1.4,
        1.4,
        1.4,
        1.4,
        1.4,
        1.4,
        1.4,
        2.8,
        2.8,
        2.8,
        2.8,
        2.8,
        2.8,
        2.8,
        2.8,
        1.4,
        1.4,
        1.4,
        1.4,
        1.4,
        1.4,
        1.4,
        1.4,
        1.4,
        1.4,
        1.4,
        1.4,
        2.8,
        2.8,
        2.8,
        2.8,
        2.8,
        2.8,
        2.8,
        2.8,
        1.4,
        1.4,
        1.4,
        1.4,
        1.4,
        1.4,
        1.4,
        1.4,
        1.4,
        1.4,
        1.4,
        1.4,
        2.8,
        2.8,
        2.8,
        2.8,
        2.8,
        2.8,
        2.8,
        2.8,
        1.4,
        1.4,
        1.4,
        1.4,
        1.4,
        1.4,
        1.4,
        1.4,
        1.4,
        1.4,
        1.4,
        1.4,
        2.8,
        2.8,
        2.8,
        2.8,
        2.8,
        2.8,
        2.8,
        2.8,
        1.4,
        1.4,
        1.4,
        1.4,
        1.4,
        1.4,
        1.4,
        1.4,
        1.4,
        1.4,
        1.4,
        1.4,
        2.8,
        2.8,
        2.8,
        2.8,
        2.8,
        2.8,
        2.8,
        2.8,
        1.4,
        1.4,
        1.4,
        1.4,
        1.4,
        1.4,
        1.4,
        1.4,
        1.4,
        1.4,
        1.4,
        1.4,
        2.8,
        2.8,
        2.8,
        2.8,
        2.8,
        2.8,
        2.8,
        2.8,
        1.4,
        1.4,
        1.4,
        1.4,
        1.4,
        1.4,
        1.4,
        1.4,
        1.4,
        1.4,
        1.4,
        1.4,
        2.8,
        2.8,
        2.8,
        2.8,
        2.8,
        2.8,
        2.8,
        2.8,
        1.4,
        1.4,
        1.4,
        1.4,
        1.4,
        1.4,
        1.4,
        1.4,
        1.4,
        1.4,
        1.4,
        1.4,
        2.8,
        2.8,
        2.8,
        2.8,
        2.8,
        2.8,
        2.8,
        2.8,
        1.4,
        1.4,
        1.4,
        1.4,
        1.4,
        1.4,
        1.4,
        1.4,
        1.4,
        1.4,
        1.4,
        1.4,
        2.8,
        2.8,
        2.8,
        2.8,
        2.8,
        2.8,
        2.8,
        2.8,
        1.4,
        1.4,
        1.4,
        1.4,
        1.4,
        1.4,
        1.4,
        1.4,
        1.4,
        1.4,
        1.4,
        1.4,
        2.8,
        2.8,
        2.8,
        2.8,
        2.8,
        2.8,
        2.8,
        2.8,
        1.4,
        1.4,
        1.4,
        1.4,
        1.4,
        1.4,
        1.4,
        1.4,
        1.4,
        1.4,
        1.4,
        1.4,
        2.8,
        2.8,
        2.8,
        2.8,
        2.8,
        2.8,
        2.8,
        2.8,
        1.4,
        1.4,
        1.4,
        1.4,
        1.4,
        1.4,
        1.4,
        1.4,
        1.4,
        1.4,
        1.4,
        1.4,
        2.8,
        1.4,
        1.4,
        1.4,
        1.4,
        1.4,
        1.4,
        1.4,
        1.4,
        1.4,
        1.4,
        1.4,
        1.4,
        1.4,
        1.4,
        1.4,
        1.4,
        1.4,
        1.4,
        1.4,
        2.8,
        2.8,
        2.8,
        2.8,
        2.8,
        2.8,
        2.8,
        2.8,
        1.4,
        1.4,
        1.4,
        1.4,
        1.4,
        1.4,
        1.4,
        1.4,
        1.4,
        1.4,
        1.4,
        1.4,
        2.8,
        2.8,
        2.8,
        2.8,
        2.8,
        2.8,
        2.8,
        2.8,
        1.4,
        1.4,
        1.4,
        1.4,
        1.4,
        1.4,
        1.4,
        1.4,
        1.4,
        1.4,
        1.4,
        1.4,
        2.8,
        2.8,
        2.8,
        2.8,
        1.4,
        1.4,
        1.4,
        1.4,
        1.4,
        1.4,
        1.4,
        1.4,
        1.4,
        1.4,
        1.4,
        1.4,
        1.4,
        1.4,
        1.4,
        1.4,
        1.4,
        2.8,
        2.8,
        2.8,
        2.8,
        2.8,
        2.8,
        2.8,
        1.4,
        1.4,
        1.4,
        1.4,
        1.4,
        1.4,
        1.4,
        1.4,
        1.4,
        1.4,
        1.4,
        1.4,
        2.8,
        2.8,
        2.8,
        2.8,
        2.8,
        2.8,
        2.8,
        2.8,
        1.4,
        1.4,
        1.4,
        1.4,
        1.4,
        1.4,
        1.4,
        1.4,
        1.4,
        1.4,
        1.4,
        1.4,
        2.8,
        2.8,
        2.8,
        2.8,
        2.8,
        2.8,
        2.8,
        2.8,
        1.4,
        1.4,
        1.4,
        1.4,
        1.4,
        1.4,
        1.4,
        1.4,
        1.4,
        1.4,
        1.4,
        1.4,
        2.8,
        2.8,
        2.8,
        2.8,
        2.8,
        2.8,
        2.8,
        2.8,
        1.4,
        1.4,
        1.4,
        1.4,
        1.4,
        1.4,
        1.4,
        1.4,
        1.4,
        1.4,
        1.4,
        1.4,
        2.8,
        2.8,
        2.8,
        2.8,
        2.8,
        2.8,
        2.8,
        2.8,
        1.4,
        1.4,
        1.4,
        1.4,
        1.4,
        1.4,
        1.4,
        1.4,
        1.4,
        1.4,
        1.4,
        1.4,
        2.8,
        2.8,
        2.8,
        2.8,
        2.8,
        2.8,
        2.8,
        2.8,
        1.4,
        1.4,
        1.4,
        1.4,
        1.4,
        1.4,
        1.4,
        1.4,
        1.4,
        1.4,
        1.4,
        1.4,
        2.8,
        2.8,
        2.8,
        2.8,
        2.8,
        2.8,
        2.8,
        2.8,
        1.4,
        1.4,
        1.4,
        1.4,
        1.4,
        1.4,
        1.4,
        1.4,
        1.4,
        1.4,
        1.4,
        1.4,
        2.8,
        2.8,
        2.8,
        2.8,
        2.8,
        2.8,
        2.8,
        2.8,
        1.4,
        1.4,
        1.4,
        1.4,
        1.4,
        1.4,
        1.4,
        1.4,
        1.4,
        1.4,
        1.4,
        1.4,
        2.8,
        2.8,
        2.8,
        2.8,
        2.8,
        2.8,
        2.8,
        2.8,
        1.4,
        1.4,
        1.4,
        1.4,
        1.4,
        1.4,
        1.4,
        1.4,
        1.4,
        1.4,
        1.4,
        1.4,
        2.8,
        2.8,
        2.8,
        2.8,
        2.8,
        2.8,
        2.8,
        2.8,
        1.4,
        1.4,
        1.4,
        1.4,
        1.4,
        1.4,
        1.4,
        1.4,
        1.4,
        1.4,
        1.4,
        1.4,
        2.8,
        2.8,
        2.8,
        2.8,
        2.8,
        2.8,
        2.8,
        2.8,
        1.4,
        1.4,
        1.4,
        1.4,
        1.4,
        1.4,
        1.4,
        1.4,
        1.4,
        1.4,
        1.4,
        1.4,
        2.8,
        2.8,
        2.8,
        2.8,
        2.8,
        2.8,
        2.8,
        2.8,
        1.4,
        1.4,
        1.4,
        1.4,
        1.4,
        1.4,
        1.4,
        1.4,
        1.4,
        1.4,
        1.4,
        1.4,
        2.8,
        2.8,
        2.8,
        2.8,
        2.8,
        2.8,
        2.8,
        2.8,
        1.4,
        1.4,
        1.4,
        1.4,
        1.4,
        1.4,
        1.4,
        1.4,
        1.4,
        1.4,
        1.4,
        1.4,
        2.8,
        2.8,
        2.8,
        2.8,
        1.4,
        1.4,
        1.4,
        1.4,
        1.4,
        1.4,
        1.4,
        1.4,
        1.4,
        1.4,
        1.4,
        1.4,
        1.4,
        1.4,
        1.4,
        1.4,
        2.8,
        2.8,
        2.8,
        2.8,
        2.8,
        2.8,
        2.8,
        2.8,
        1.4,
        1.4,
        1.4,
        1.4,
        1.4,
        1.4,
        1.4,
        1.4,
        1.4,
        1.4,
        1.4,
        1.4,
        2.8,
        2.8,
        2.8,
        2.8,
        2.8,
        2.8,
        2.8,
        2.8,
        1.4,
        1.4,
        1.4,
        1.4,
        1.4,
        1.4,
        1.4,
        1.4,
        1.4,
        1.4,
        1.4,
        1.4,
        2.8,
        2.8,
        2.8,
        2.8,
        2.8,
        2.8,
        2.8,
        2.8,
        1.4,
        1.4,
        1.4,
        1.4,
        1.4,
        1.4,
        1.4,
        1.4,
        1.4,
        1.4,
        1.4,
        1.4,
        2.8,
        2.8,
        2.8,
        2.8,
        2.8,
        2.8,
        2.8,
        2.8,
        1.4,
        1.4,
        1.4,
        1.4,
        1.4,
        1.4,
        1.4,
        1.4,
        1.4,
        1.4,
        1.4,
        1.4,
        2.8,
        2.8,
        2.8,
        2.8,
        2.8,
        2.8,
        2.8,
        2.8,
        1.4,
        1.4,
        1.4,
        1.4,
        1.4,
        1.4,
        1.4,
        1.4,
        1.4,
        1.4,
        1.4,
        1.4,
        2.8,
        2.8,
        2.8,
        2.8,
        2.8,
        2.8,
        2.8,
        2.8,
        1.4,
        1.4,
        1.4,
        1.4,
        1.4,
        1.4,
        1.4,
        1.4,
        1.4,
        1.4,
        1.4,
        1.4,
        2.8,
        2.8,
        2.8,
        2.8,
        2.8,
        2.8,
        2.8,
        2.8,
        1.4,
        1.4,
        1.4,
        1.4,
        1.4,
        1.4,
        1.4,
        1.4,
        1.4,
        1.4,
        1.4,
        1.4,
        2.8,
        2.8,
        2.8,
        2.8,
        2.8,
        2.8,
        2.8,
        2.8,
        1.4,
        1.4,
        1.4,
        1.4,
        1.4,
        1.4,
        1.4,
        1.4,
        1.4,
        1.4,
        1.4,
        1.4,
        2.8,
        2.8,
        2.8,
        2.8,
        2.8,
        2.8,
        2.8,
        2.8,
        1.4,
        1.4,
        1.4,
        1.4,
        1.4,
        1.4,
        1.4,
        1.4,
        1.4,
        1.4,
        1.4,
        1.4,
        2.8,
        2.8,
        2.8,
        2.8,
        2.8,
        2.8,
        2.8,
        2.8,
        1.4,
        1.4,
        1.4,
        1.4,
        1.4,
        1.4,
        1.4,
        1.4,
        1.4,
        1.4,
        1.4,
        1.4,
        2.8,
        2.8,
        2.8,
        2.8,
        2.8,
        2.8,
        2.8,
        2.8,
        1.4,
        1.4,
        1.4,
        1.4,
        1.4,
        1.4,
        1.4,
        1.4,
        1.4,
        1.4,
        1.4,
        1.4,
        2.8,
        2.8,
        2.8,
        2.8,
        2.8,
        2.8,
        2.8,
        2.8,
        1.4,
        1.4,
        1.4,
        1.4,
        1.4,
        1.4,
        1.4,
        1.4,
        1.4,
        1.4,
        1.4,
        1.4,
        2.8,
        2.8,
        2.8,
        2.8,
        2.8,
        2.8,
        2.8,
        2.8,
        1.4,
        1.4,
        1.4,
        1.4,
        1.4,
        1.4,
        1.4,
        1.4,
        1.4,
        1.4,
        1.4,
        1.4,
        2.8,
        2.8,
        2.8,
        2.8,
        2.8,
        2.8,
        2.8,
        2.8,
        1.4,
        1.4,
        1.4,
        1.4,
        1.4,
        1.4,
        1.4,
        1.4,
        1.4,
        1.4,
        1.4,
        1.4,
        2.8,
        2.8,
        2.8,
        2.8,
        2.8,
        2.8,
        2.8,
        2.8,
        1.4,
        1.4,
        1.4,
        1.4,
        1.4,
        1.4,
        1.4,
        1.4,
        1.4,
        1.4,
        1.4,
        1.4,
        2.8,
        2.8,
        2.8,
        2.8,
        2.8,
        2.8,
        2.8,
        2.8,
        1.4,
        1.4,
        1.4,
        1.4,
        1.4,
        1.4,
        1.4,
        1.4,
        1.4,
        1.4,
        1.4,
        1.4,
        2.8,
        2.8,
        2.8,
        2.8,
        2.8,
        2.8,
        2.8,
        2.8,
        1.4,
        1.4,
        1.4,
        1.4,
        1.4,
        1.4,
        1.4,
        1.4,
        1.4,
        1.4,
        1.4,
        1.4,
        2.8,
        2.8,
        2.8,
        2.8,
        2.8,
        2.8,
        2.8,
        2.8,
        1.4,
        1.4,
        1.4,
        1.4,
        1.4,
        1.4,
        1.4,
        1.4,
        1.4,
        1.4,
        1.4,
        1.4,
        2.8,
        2.8,
        2.8,
        2.8,
        2.8,
        2.8,
        2.8,
        2.8,
        1.4,
        1.4,
        1.4,
        1.4,
        1.4,
        1.4,
        1.4,
        1.4,
        1.4,
        1.4,
        1.4,
        1.4,
        2.8,
        2.8,
        2.8,
        2.8,
        2.8,
        2.8,
        2.8,
        2.8,
        1.4,
        1.4,
        1.4,
        1.4,
        1.4,
        1.4,
        1.4,
        1.4,
        1.4,
        1.4,
        1.4,
        1.4,
        2.8,
        2.8,
        2.8,
        2.8,
        2.8,
        2.8,
        2.8,
        2.8,
        1.4,
        1.4,
        1.4,
        1.4,
        1.4,
        1.4,
        1.4,
        1.4,
        1.4,
        1.4,
        1.4,
        1.4,
        2.8,
        2.8,
        2.8,
        2.8,
        2.8,
        2.8,
        2.8,
        2.8,
        1.4,
        1.4,
        1.4,
        1.4,
        1.4,
        1.4,
        1.4,
        1.4,
        1.4,
        1.4,
        1.4,
        1.4,
        2.8,
        2.8,
        2.8,
        2.8,
        2.8,
        2.8,
        2.8,
        2.8,
        1.4,
        1.4,
        1.4,
        1.4,
        1.4,
        1.4,
        1.4,
        1.4,
        1.4,
        1.4,
        1.4,
        1.4,
        2.8,
        2.8,
        2.8,
        2.8,
        2.8,
        2.8,
        2.8,
        2.8,
        1.4,
        1.4,
        1.4,
        1.4,
        1.4,
        1.4,
        1.4,
        1.4,
        1.4,
        1.4,
        1.4,
        1.4,
        2.8,
        2.8,
        2.8,
        2.8,
        2.8,
        2.8,
        2.8,
        2.8,
        1.4,
        1.4,
        1.4,
        1.4,
        1.4,
        1.4,
        1.4,
        1.4,
        1.4,
        1.4,
        1.4,
        1.4,
        2.8,
        2.8,
        2.8,
        2.8,
        2.8,
        2.8,
        2.8,
        2.8,
        1.4,
        1.4,
        1.4,
        1.4,
        1.4,
        1.4,
        1.4,
        1.4,
        1.4,
        1.4,
        1.4,
        1.4,
        2.8,
        2.8,
        2.8,
        2.8,
        2.8,
        2.8,
        2.8,
        2.8,
        1.4,
        1.4,
        1.4,
        1.4,
        1.4,
        1.4,
        1.4,
        1.4,
        1.4,
        1.4,
        1.4,
        1.4,
        2.8,
        2.8,
        2.8,
        2.8,
        2.8,
        2.8,
        2.8,
        2.8,
        1.4,
        1.4,
        1.4,
        1.4,
        1.4,
        1.4,
        1.4,
        1.4,
        1.4,
        1.4,
        1.4,
        1.4,
        2.8,
        2.8,
        2.8,
        2.8,
        2.8,
        2.8,
        2.8,
        2.8,
        1.4,
        1.4,
        1.4,
        1.4,
        1.4,
        1.4,
        1.4,
        1.4,
        1.4,
        1.4,
        1.4,
        1.4,
        2.8,
        2.8,
        2.8,
        2.8,
        2.8,
        2.8,
        2.8,
        2.8,
        1.4,
        1.4,
        1.4,
        1.4,
        1.4,
        1.4,
        1.4,
        1.4,
        1.4,
        1.4,
        1.4,
        1.4,
        2.8,
        2.8,
        2.8,
        2.8,
        2.8,
        2.8,
        2.8,
        2.8,
        1.4,
        1.4,
        1.4,
        1.4,
        1.4,
        1.4,
        1.4,
        1.4,
        1.4,
        1.4,
        1.4,
        1.4,
        2.8,
        2.8,
        2.8,
        2.8,
        2.8,
        2.8,
        2.8,
        2.8,
        1.4,
        1.4,
        1.4,
        1.4,
        1.4,
        1.4,
        1.4,
        1.4,
        1.4,
        1.4,
        1.4,
        1.4,
        2.8,
        2.8,
        2.8,
        2.8,
        2.8,
        2.8,
        2.8,
        2.8,
        1.4,
        1.4,
        1.4,
        1.4,
        1.4,
        1.4,
        1.4,
        1.4,
        1.4,
        1.4,
        1.4,
        1.4,
        2.8,
        2.8,
        2.8,
        2.8,
        2.8,
        2.8,
        2.8,
        2.8,
        1.4,
        1.4,
        1.4,
        1.4,
        1.4,
        1.4,
        1.4,
        1.4,
        1.4,
        1.4,
        1.4,
        1.4,
        2.8,
        2.8,
        2.8,
        2.8,
        2.8,
        2.8,
        2.8,
        2.8,
        1.4,
        1.4,
        1.4,
        1.4,
        1.4,
        1.4,
        1.4,
        1.4,
        1.4,
        1.4,
        1.4,
        1.4,
        2.8,
        2.8,
        2.8,
        2.8,
        2.8,
        2.8,
        2.8,
        2.8,
        1.4,
        1.4,
        1.4,
        1.4,
        1.4,
        1.4,
        1.4,
        1.4,
        1.4,
        1.4,
        1.4,
        1.4,
        2.8,
        2.8,
        2.8,
        2.8,
        2.8,
        2.8,
        2.8,
        2.8,
        1.4,
        1.4,
        1.4,
        1.4,
        1.4,
        1.4,
        1.4,
        1.4,
        1.4,
        1.4,
        1.4,
        1.4,
        2.8,
        2.8,
        2.8,
        2.8,
        2.8,
        2.8,
        2.8,
        2.8,
        1.4,
        1.4,
        1.4,
        1.4,
        1.4,
        1.4,
        1.4,
        1.4,
        1.4,
        1.4,
        1.4,
        1.4,
        2.8,
        2.8,
        2.8,
        2.8,
        2.8,
        2.8,
        2.8,
        2.8,
        1.4,
        1.4,
        1.4,
        1.4,
        1.4,
        1.4,
        1.4,
        1.4,
        1.4,
        1.4,
        1.4,
        1.4,
        2.8,
        2.8,
        2.8,
        2.8,
        2.8,
        2.8,
        2.8,
        2.8,
        1.4,
        1.4,
        1.4,
        1.4,
        1.4,
        1.4,
        1.4,
        1.4,
        1.4,
        1.4,
        1.4,
        1.4,
        2.8,
        2.8,
        2.8,
        2.8,
        2.8,
        2.8,
        2.8,
        2.8,
        1.4,
        1.4,
        1.4,
        1.4,
        1.4,
        1.4,
        1.4,
        1.4,
        1.4,
        1.4,
        1.4,
        1.4,
        2.8,
        2.8,
        2.8,
        2.8,
        2.8,
        2.8,
        2.8,
        2.8,
        1.4,
        1.4,
        1.4,
        1.4,
        1.4,
        1.4,
        1.4,
        1.4,
        1.4,
        1.4,
        1.4,
        1.4,
        2.8,
        2.8,
        2.8,
        2.8,
        2.8,
        2.8,
        2.8,
        2.8,
        1.4,
        1.4,
        1.4,
        1.4,
        1.4,
        1.4,
        1.4,
        1.4,
        1.4,
        1.4,
        1.4,
        1.4,
        2.8,
        2.8,
        2.8,
        2.8,
        2.8,
        2.8,
        2.8,
        2.8,
        1.4,
        1.4,
        1.4,
        1.4,
        1.4,
        1.4,
        1.4,
        1.4,
        1.4,
        1.4,
        1.4,
        1.4,
        2.8,
        2.8,
        2.8,
        2.8,
        2.8,
        2.8,
        2.8,
        2.8,
        1.4,
        1.4,
        1.4,
        1.4,
        1.4,
        1.4,
        1.4,
        1.4,
        1.4,
        1.4,
        1.4,
        1.4,
        2.8,
        2.8,
        2.8,
        2.8,
        2.8,
        2.8,
        2.8,
        2.8,
        1.4,
        1.4,
        1.4,
        1.4,
        1.4,
        1.4,
        1.4,
        1.4,
        1.4,
        1.4,
        1.4,
        1.4,
        2.8,
        2.8,
        2.8,
        2.8,
        2.8,
        2.8,
        2.8,
        2.8,
        1.4,
        1.4,
        1.4,
        1.4,
        1.4,
        1.4,
        1.4,
        1.4,
        1.4,
        1.4,
        1.4,
        1.4,
        2.8,
        2.8,
        2.8,
        2.8,
        2.8,
        2.8,
        2.8,
        2.8,
        1.4,
        1.4,
        1.4,
        1.4,
        1.4,
        1.4,
        1.4,
        1.4,
        1.4,
        1.4,
        1.4,
        1.4,
        2.8,
        2.8,
        2.8,
        2.8,
        2.8,
        2.8,
        2.8,
        2.8,
        1.4,
        1.4,
        1.4,
        1.4,
        1.4,
        1.4,
        1.4,
        1.4,
        1.4,
        1.4,
        1.4,
        1.4,
        2.8,
        2.8,
        2.8,
        2.8,
        2.8,
        2.8,
        2.8,
        2.8,
        1.4,
        1.4,
        1.4,
        1.4,
        1.4,
        1.4,
        1.4,
        1.4,
        1.4,
        1.4,
        1.4,
        1.4,
        2.8,
        2.8,
        2.8,
        2.8,
        2.8,
        2.8,
        2.8,
        2.8,
        1.4,
        1.4,
        1.4,
        1.4,
        1.4,
        1.4,
        1.4,
        1.4,
        1.4,
        1.4,
        1.4,
        1.4,
        2.8,
        2.8,
        2.8,
        2.8,
        2.8,
        2.8,
        2.8,
        2.8,
        1.4,
        1.4,
        1.4,
        1.4,
        1.4,
        1.4,
        1.4,
        1.4,
        1.4,
        1.4,
        1.4,
        1.4,
        2.8,
        2.8,
        2.8,
        2.8,
        2.8,
        2.8,
        2.8,
        2.8,
        1.4,
        1.4,
        1.4,
        1.4,
        1.4,
        1.4,
        1.4,
        1.4,
        1.4,
        1.4,
        1.4,
        1.4,
        2.8,
        2.8,
        2.8,
        2.8,
        2.8,
        2.8,
        2.8,
        2.8,
        1.4,
        1.4,
        1.4,
        1.4,
        1.4,
        1.4,
        1.4,
        1.4,
        1.4,
        1.4,
        1.4,
        1.4,
        2.8,
        2.8,
        2.8,
        2.8,
        2.8,
        2.8,
        2.8,
        2.8,
        1.4,
        1.4,
        1.4,
        1.4,
        1.4,
        1.4,
        1.4,
        1.4,
        1.4,
        1.4,
        1.4,
        1.4,
        2.8,
        2.8,
        2.8,
        2.8,
        2.8,
        2.8,
        2.8,
        2.8,
        1.4,
        1.4,
        1.4,
        1.4,
        1.4,
        1.4,
        1.4,
        1.4,
        1.4,
        1.4,
        1.4,
        1.4,
        2.8,
        2.8,
        2.8,
        2.8,
        2.8,
        2.8,
        2.8,
        2.8,
        1.4,
        1.4,
        1.4,
        1.4,
        1.4,
        1.4,
        1.4,
        1.4,
        1.4,
        1.4,
        1.4,
        1.4,
        2.8,
        2.8,
        2.8,
        2.8,
        2.8,
        2.8,
        2.8,
        2.8,
        1.4,
        1.4,
        1.4,
        1.4,
        1.4,
        1.4,
        1.4,
        1.4,
        1.4,
        1.4,
        1.4,
        1.4,
        2.8,
        2.8,
        2.8,
        2.8,
        2.8,
        2.8,
        2.8,
        2.8,
        1.4,
        1.4,
        1.4,
        1.4,
        1.4,
        1.4,
        1.4,
        1.4,
        1.4,
        1.4,
        1.4,
        1.4,
        2.8
    ],
    "2.8": 944,
    "2.7": 0,
    "2.6": 0,
    "2.5": 0,
    "2.4": 0,
    "2.3": 0,
    "2.2": 0,
    "2.1": 0,
    "2.0": 0,
    "1.9": 0,
    "1.8": 0,
    "1.7": 0,
    "1.6": 0,
    "1.5": 0,
    "1.4": 1476
}